Basic Pathfinding
Advanced Pathfinding
Expert Pathfinding
Basic Archery
Advanced Archery
Expert Archery
Basic Logistics
Advanced Logistics
Expert Logistics
Basic Scouting
Advanced Scouting
Expert Scouting
Basic Diplomacy
Advanced Diplomacy
Expert Diplomacy
Basic Navigation
Advanced Navigation
Expert Navigation
Basic Leadership
Advanced Leadership
Expert Leadership
Basic Wisdom
Advanced Wisdom
Expert Wisdom
Basic Mysticism
Advanced Mysticism
Expert Mysticism
Basic Luck
Advanced Luck
Expert Luck
Basic Ballistics
Advanced Ballistics
Expert Ballistics
Basic Eagle Eye
Advanced Eagle Eye
Expert Eagle Eye
Basic Necromancy
Advanced Necromancy
Expert Necromancy
Basic Estates
Advanced Estates
Expert Estates
Basic Fire Magic
Advanced Fire Magic
Expert Fire Magic
Basic Air Magic
Advanced Air Magic
Expert Air Magic
Basic Water Magic
Advanced Water Magic
Expert Water Magic
Basic Earth Magi
Advanced Earth Magic
Expert Earth Magic
Basic Scholar
Advanced Scholar
Expert Scholar
Basic Tactics
Advanced Tactics
Expert Tactics
Basic Artillery
Advanced Artillery
Expert Artillery
Basic Learning
Advanced Learning
Expert Learning
Basic Offence
Advanced Offence
Expert Offence
Basic Armorer
Advanced Armorer
Expert Armorer
Basic Intelligence
Advanced Intelligence
Expert Intelligence
Basic Sorcery
Advanced Sorcery
Expert Sorcery
Basic Resistance
Advanced Resistance
Expert Resistance
Basic First Aid
Advanced First Aid
Expert First Aid